name|cost|command|movement|psychic|shooting|charge|fight|morale|text|type
Command Re-roll|1||movement.png|psychic.png|shooting.png|charge.png|fight.png||Use this Stratagem after you have made a hit roll, a wound roll, a damage roll, a saving throw, an Advance roll, a charge roll, a Psychic test, a Deny the Witch test or you have rolled the dice to determine the number of attacks made by a weapon. Re-roll that roll, test or saving throw.|Core Stratagem
Cut Them Down|1|||||||morale.png|Use this Stratagem when an enemy unit Falls Back, before any models in that unit are moved. Roll one D6 for each model from your army that is within Engagement Range of that enemy unit; for each result of 6, that enemy unit suffers 1 mortal wound.|Core Stratagem
Desperate Breakout|1||movement.png||||||Use this Stratagem in your Movement phase. Select one unit from your army that has not been selected to move this phase and which is in Engagement Range with at least one enemy unit. Roll one D6 for each model in that unit; for each result of 1, one model in that unit of your choice is destroyed. Assuming that unit was not destroyed, it can now attempt to Fall Back, and when doing so its models can be moved across enemy models as if they were not there. Any model in that unit that ends its Fall Back move within Engagement Range of any enemy model is destroyed. Assuming the unit is not destroyed, it cannot do anything else this turn (i.e. it cannot attempt to manifest psychic powers, shoot, declare a charge, be selected to fight etc.), even if it has a rule that would allow it to do so after Falling Back.|Core Stratagem
Fire Overwatch|1|||||charge.png|||Use this Stratagem after an enemy unit has declared a charge against one or more units from your army. One of the units that was chosen as the target of that charge can fire Overwatch (pg 227) before the charge roll is made. |Core Stratagem
Insane Bravery|2|||||||morale.png|Use this Stratagem before you take a Morale test for a unit in your army. That test is automatically passed (do not roll any dice). You can only use this Stratagem once per battle.|Core Stratagem
Counter-offensive|2||||||fight.png||Use this Stratagem after an enemy unit has fought in this turn. Select one of your own eligible units and fight with it next.|Core Stratagem
Emergency Disembarkation|1|||psychic.png|shooting.png||fight.png||Use this Stratagem when a TRANSPORT model from your army is destroyed. All units that are embarked within that model can be set up wholly within 6" of the destroyed model when they disembark instead of the normal 3" before the model itself is removed from the battlefield. These units are not affected by the destroyed model's Explodes ability (or equivalent) — instead you must roll one D6 for each model you just set up on the battlefield. Instead of one model that disembarked (your choice) being destroyed for each roll of 1, one model that disembarked (your choice) is destroyed for each roll of 1 or 2. Units cannot declare a charge (pg 224) or perform a Heroic Intervention (pg 225) in the same turn that they disembarked from a destroyed TRANSPORT model.|Core Stratagem
Clandestine Goals|1|command.png|||||||Use this Stratagem before the battle if your army is led by a GENESTEALER CULTS Warlord and you are playing a mission that uses Tactical Objectives. For the duration of the battle, keep your Tactical Objectives secret from your opponent, only revealing them when they are achieved.|Genestealer Cults Stratagem
Devoted Crew|1|command.png|||||||Use this Stratagem at the start of any turn. Select a GENESTEALER CULTS VEHICLE model from your army. Until the end of the turn, use the top row of the model’s damage table, regardless of how many wounds it has left. This ends immediately if the model is reduced to 0 wounds.|Genestealer Cults Stratagem
Lurk in the Shadows|2||||shooting.png||||Use this Stratagem at the start of your opponent’s Shooting phase. Select a GENESTEALER CULTS INFANTRY unit from your army that is entirely on or within any terrain feature. Until the end of the phase, enemy models can only shoot that unit if it is the closest enemy unit that is visible to them.|Genestealer Cults Stratagem
Monstrous Vigour|2|command.png|||||||Use this Stratagem at the start of your turn. Select an ABERRANT unit from your army. Until the start of your next turn, add 1 to Bestial Vigour rolls made for that unit.|Genestealer Cults Stratagem
They Came From Below…|1||movement.png||||||Use this Stratagem before you reveal an ambush marker. Select up to 3 units (excluding VEHICLES ) from your army that are set up in ambush. For each unit that you select, remove one ambush marker from the battlefield. The selected units are no longer set up in ambush and are instead set up underground, as described in the Cult Ambush ability (pg 78). Any units set up underground in this way cannot arrive on the battlefield during the first battle round, and in a matched play game, if they haven’t arrived from underground by the end of the third battle round they count as having been destroyed. You can only use this Stratagem once per battle.|Genestealer Cults Stratagem
Meticulous Uprising|1||movement.png||||||Use this Stratagem before you reveal an ambush marker. Move up to 3 of your ambush markers up to 12" each. These markers cannot be moved within 9" of any enemy models or outside your deployment zone.|Genestealer Cults Stratagem
Broodcoven|1|command.png|||||||Use this Stratagem before the battle if your Warlord is a PATRIARCH . Select up to one MAGUS and up to one PRIMUS from your army. Generate a Warlord Trait for each selected model (note that these models are only regarded as your Warlord for the purposes of these Warlord Traits). All three models must have a different Warlord Trait. This Stratagem can only be used once per battle.|Genestealer Cults Stratagem
Hyper-metabolism|1||movement.png||||||Use this Stratagem at the start of your Movement phase. Select a GENESTEALER CULTS CHARACTER from your army. That model regains D3 lost wounds.|Genestealer Cults Stratagem
Rigged to Blow|1|||psychic.png|shooting.png||fight.png||Use this Stratagem when a GENESTEALER CULTS VEHICLE model from your army that is equipped with a cache of demolition charges is destroyed. Do not roll a D6; that model automatically explodes.|Genestealer Cults Stratagem
The First Curse|1|command.png|||||||Use this Stratagem before the battle. Select a PURESTRAIN GENESTEALER unit from your army and roll a D6 to see which effect applies to this unit for the duration of the battle: on a 1-2, each wound roll of 6+ for an attack made in the Fight phase by models in this unit inflicts 1 additional damage; on a 3-4, add 1 to Advance and charge rolls made for the unit: and on a 5-6, the unit loses its Swift and Deadly ability but the Save characteristic of models in the unit is changed to 4+. You can only use this Stratagem once per battle.|Genestealer Cults Stratagem
A Perfect Ambush|3||movement.png||||||Use this Stratagem in the Movement phase, immediately after you set up an INFANTRY or BIKER unit from your army that has the Cult Ambush ability on the battlefield. That unit can either move D6" (even if it has arrived as reinforcements), or it can shoot with all of its ranged weapons as if it were your Shooting phase (using this Stratagem in your own turn does not prevent that unit from shooting in your Shooting phase or making a charge move in the Charge phase of this turn). You cannot use this Stratagem on a unit that disembarked from a Transport this turn.|Genestealer Cults Stratagem
Cult Reinforcements|1||movement.png||||||Use this Stratagem at the start of your Movement phase. Select a GENESTEALER CULTS unit from your army that has the Troops Battlefield Role. You can return up to D6 slain models to that unit, with each set up in unit coherency and more than 1" away from any enemy models – if it is not possible to place a model in such a way, it is not returned to the unit.|Genestealer Cults Stratagem
Telepathic Summons|2|||psychic.png|||||Use this Stratagem at the start of your Psychic phase. Select a [CULT] PSYKER model from your army. That model cannot attempt to manifest any psychic powers this phase. Instead, roll 3D6; you can add one new [CULT] INFANTRY or BIKER unit to your army if it has the Cult Ambush ability and its Power Rating is equal to or less than this roll (otherwise, no new unit is added). That unit is immediately set up on the battlefield anywhere that is more than 9" from any enemy models.|Genestealer Cults Stratagem
Detonate Concealed Explosives|2||||shooting.png||||Use this Stratagem at the start of your Shooting phase if any GENESTEALER CULTS models from your army are on the battlefield. Select an enemy unit on the battlefield and roll a D6. Subtract 1 from the result if the unit is a CHARACTER and add 1 if the unit contains 10 or more models. On a 4+ that unit suffers D3 mortal wounds; on a 7+ it suffers D6 mortal wounds instead.|Genestealer Cults Stratagem
Return to the Shadows|1||movement.png||||||Use this Stratagem at the end of your Movement phase. Select one INFANTRY or BIKER unit from your army that has the Cult Ambush ability and is more than 3" away from any enemy models (you cannot select a unit that arrived as reinforcements this turn). Remove that unit from the battlefield. At the end of your next Movement phase, that unit is set up on the battlefield again, anywhere that is more than 9" from any enemy models. If the battle ends before this unit is set back up, it is destroyed.|Genestealer Cults Stratagem
Scanner Decoys|1|command.png|||||||Use this Stratagem when you set up a unit from your army that has the Cult Ambush ability in ambush. Place four ambush markers for that unit instead of one. If you have used this Stratagem, then when you reveal ambush markers, once there are no units from your army remaining in ambush, remove all of your remaining ambush markers from the battlefield. You can only use this Stratagem once per battle.|Genestealer Cults Stratagem
Lying in Wait|2||movement.png||||||Use this Stratagem when you set up a unit from your army as reinforcements that has the Cult Ambush ability and that was set up underground. When setting up that unit, it can be set up anywhere on the battlefield that is more than 3" from any enemy models, but that unit cannot make a charge move this turn.|Genestealer Cults Stratagem
Extra Explosives|1||||shooting.png|charge.png|||Use this Stratagem before a GENESTEALER CULTS unit from your army is selected to shoot or fire Overwatch. Up to 10 models from that unit that are armed with Grenades can throw a Grenade this phase, instead of only one model being able to do so (no more than five of these models can throw demolition charges).|Genestealer Cults Stratagem
Grandsire’s Gifts|1/3|command.png|||||||Use this Stratagem before the battle. Your army can have one extra Sacred Relic of the Cult for 1 CP, or two extra sacred Relics of the Cult for 3 CPs. All of the Sacred Relics of the Cult that you include must be different and be given to different GENESTEALER CULTS CHARACTERS. This Stratagem can only be used once per battle.|Genestealer Cults Stratagem
Overthrow the Oppressors|1||||||fight.png||Use this Stratagem before a BLADED COG unit (excluding GENESTEALER units) from your army is selected to fight in the Fight phase. Until the end of the phase, each time you roll an unmodified hit roll of 6 for an attack by a model in that unit, that model can immediately make an additional hit roll against the same target using the same weapon. These bonus attacks cannot themselves generate any further attacks. These extra attacks are instead generated on unmodified hit rolls of 5 or 6 when targeting IMPERIUM units, or on unmodified rolls of 4, 5 or 6 when targeting ADEPTUS MECHANICUS units.|The Bladed Cog Stratagem
A Plan Generations in the Making|3|command.png|movement.png|psychic.png|shooting.png|charge.png|fight.png|morale.png|Use this Stratagem just after your opponent has spent CPs to use a Stratagem, but before the effects of that Stratagem are resolved. Roll a D6; on a 1 your opponent's Stratagem is resolved as normal. On a 2-5 your opponent's CPs are refunded, but the Stratagem they were using is not resolved and cannot be attempted again this phase. On a 6 the Stratagem they were attempting to use is not resolved, cannot be attempted again this phase and the CPs spent are lost. This Stratagem cannot be used if there are no CULT OF THE FOUR-ARMED EMPEROR units on the battlefield, and cannot be used to affect Stratagems used 'before the battle' or 'during deployment'. You can only use this Stratagem once per battle.|Cult of the Four-armed Emperor Stratagem
Chilling Efficiency|2||||shooting.png||||Use this Stratagem after a HIVECULT unit from your army has attacked an enemy unit in the Shooting phase and the attack resulted in the enemy unit losing one or more wounds. Add 1 to hit rolls for attacks made by other friendly HIVECULT units that target the same enemy unit this phase.|The Hivecult Stratagem
Drive-by Demolitions|1||||shooting.png||||Use this Stratagem before a RUSTED CLAW BIKER unit from your army shoots in your Shooting phase. Until the end of the phase, add 1 to hit and wound rolls made for attacks with that unit's Grenade weapons. After this unit has resolved all of its shooting attacks this phase, it can immediately make a move as if it were your Movement phase, but cannot charge this turn.|The Rusted Claw Stratagem
Vengeance for the Martyred|1|||psychic.png|shooting.png||fight.png||Use this Stratagem when an enemy unit destroys a PAUPER PRINCES CHARACTER model from your army. For the remainder of the battle, add 1 to hit rolls for attacks made by friendly PAUPER PRINCES models when they target the enemy unit that destroyed that character.|The Pauper Princes Stratagem
Monstrous Bio-horrors|3||||||fight.png||Use this Stratagem at the end of the Fight phase. Select a TWISTED HELIX ABERRANT unit from your army. That unit can immediately fight again. In addition, until the end of the turn, subtract 1 from the Leadership characteristic of enemy units while they are within 6" of that unit.|The Twisted Helix Stratagem
